{
  "project_info": {
    "project_number": "874541832319",
    "firebase_url": "https://teste-dynamic-link.firebaseio.com",
    "project_id": "teste-dynamic-link",
    "storage_bucket": "teste-dynamic-link.appspot.com"
  },
  "client": [
    {
      "client_info": {
        "mobilesdk_app_id": "1:874541832319:android:8d9502258e9571ff",
        "android_client_info": {
          "package_name": "com.example.teste_ml_kit"
        }
      },
      "oauth_client": [
        {
          "client_id": "874541832319-vr1g06vkscajkuodip19u5bip45ijqfd.apps.googleusercontent.com",
          "client_type": 3
        }
      ],
      "api_key": [
        {
          "current_key": "AIzaSyCKmoz9-H4m9Cp62wLw6lHvtgq41LNGy0M"
        }
      ],
      "services": {
        "appinvite_service": {
          "other_platform_oauth_client": [
            {
              "client_id": "874541832319-vr1g06vkscajkuodip19u5bip45ijqfd.apps.googleusercontent.com",
              "client_type": 3
            }
          ]
        }
      }
    }
  ],
  "configuration_version": "1"
}